<svg xmlns="http://www.w3.org/2000/svg" xmlns:xlink="http://www.w3.org/1999/xlink" viewBox="0 0 129.161 29.28">
  <defs>
    <style>
      .cls-1 {
        fill: url(#linear-gradient);
      }

      .cls-2 {
        fill: #6e6e6e;
      }
    </style>
    <linearGradient id="linear-gradient" x2="0.829" y2="1" gradientUnits="objectBoundingBox">
      <stop offset="0" stop-color="#ffb100"/>
      <stop offset="1" stop-color="red"/>
    </linearGradient>
  </defs>
  <g id="Group_2" data-name="Group 2" transform="translate(-271.115 -16.251)">
    <path id="Union_1" data-name="Union 1" class="cls-1" d="M-12.663,118.28A3.341,3.341,0,0,1-16,114.943v-8.438a3.341,3.341,0,0,1,3.337-3.337H5.745a3.341,3.341,0,0,1,3.337,3.337v8.438a3.341,3.341,0,0,1-3.337,3.337Zm2.225-5.232,11.647-.6,1.8-1.988-13.448-1.733Zm21.866,2.83v-10.34h1.527v10.34Zm-1.641-1.444v-7.452h1.381v7.452ZM-1.937,96.819a5.51,5.51,0,1,1,5.51,5.509A5.516,5.516,0,0,1-1.937,96.819Zm5.562-.525a1.942,1.942,0,1,0,1.942-1.942A1.944,1.944,0,0,0,3.625,96.294ZM-16,95.664A6.672,6.672,0,0,1-9.336,89a6.672,6.672,0,0,1,6.664,6.664,6.672,6.672,0,0,1-6.664,6.664A6.672,6.672,0,0,1-16,95.664Zm1.574-.839a1.944,1.944,0,0,0,1.942,1.942,1.944,1.944,0,0,0,1.942-1.942,1.944,1.944,0,0,0-1.942-1.942A1.944,1.944,0,0,0-14.426,94.824Z" transform="translate(287.115 -72.749)"/>
    <path id="Path_85" data-name="Path 85" class="cls-2" d="M1.012-1.081a.958.958,0,0,1-.437-.874,3.781,3.781,0,0,1,.874-1.817.9.9,0,0,1,.817-.391A3.356,3.356,0,0,1,3.8-3.6a3.544,3.544,0,0,0,1.748.563q1.4,0,1.4-.552,0-.437-1.541-.644A7.529,7.529,0,0,1,2.53-5.313a3.074,3.074,0,0,1-1.1-1.3,4.708,4.708,0,0,1-.437-2.1q0-3.634,4.991-3.634a8.1,8.1,0,0,1,3.358.782q.805.368.805.92a2.714,2.714,0,0,1-.506,1.357q-.506.805-1.035.805a3.113,3.113,0,0,1-1.024-.345,3.822,3.822,0,0,0-1.621-.345q-1.357,0-1.357.506,0,.69,1.564.9A8.559,8.559,0,0,1,9.108-6.9a2.6,2.6,0,0,1,1.116,1.115,4,4,0,0,1,.448,1.99,4.27,4.27,0,0,1-.448,2.036A2.91,2.91,0,0,1,8.97-.506,8.449,8.449,0,0,1,5.279.207,7.9,7.9,0,0,1,1.012-1.081Zm19.021-9.752q.138-1.288,1.817-1.288a4.763,4.763,0,0,1,1.334.138.965.965,0,0,1,.609.483,1.973,1.973,0,0,1,.207.609,6.681,6.681,0,0,1,.035.793v8.05A6.681,6.681,0,0,1,24-1.253a2.132,2.132,0,0,1-.2.609q-.322.6-1.576.6a3.1,3.1,0,0,1-1.679-.31,1.242,1.242,0,0,1-.494-.908,3.218,3.218,0,0,1-2.84,1.219,5.017,5.017,0,0,1-3.691-1.817,5.984,5.984,0,0,1-1.7-4.22,5.923,5.923,0,0,1,1.714-4.209A5.117,5.117,0,0,1,17.3-12.1a3.584,3.584,0,0,1,1.426.276,3.166,3.166,0,0,1,.9.517A3.2,3.2,0,0,1,20.033-10.833ZM15.847-6.049a1.909,1.909,0,0,0,.6,1.369,1.955,1.955,0,0,0,1.449.609,1.829,1.829,0,0,0,1.414-.621,1.993,1.993,0,0,0,.564-1.369,2.124,2.124,0,0,0-.54-1.391A1.8,1.8,0,0,0,17.882-8.1a1.863,1.863,0,0,0-1.472.644A2.089,2.089,0,0,0,15.847-6.049ZM25.875-15.8a6.681,6.681,0,0,1,.035-.793,2.132,2.132,0,0,1,.2-.61q.322-.621,1.794-.621,1.4,0,1.748.621a1.836,1.836,0,0,1,.219.621,7,7,0,0,1,.035.805V-5.129a2.406,2.406,0,0,0,.138,1.047q.138.219.609.219a3.682,3.682,0,0,1,.633.034,1.151,1.151,0,0,1,.391.2q.46.3.46,1.633,0,1.449-.46,1.771a4.985,4.985,0,0,1-2.852.138,2.872,2.872,0,0,1-2.3-1.173,7.549,7.549,0,0,1-.644-3.588ZM44.85-7.5a2.777,2.777,0,0,1-.7,2.082,2.188,2.188,0,0,1-1.553.678H37.145A1.261,1.261,0,0,0,37.9-3.657a3.019,3.019,0,0,0,1.518.437A6.332,6.332,0,0,0,41.515-3.5l.253-.092a2.319,2.319,0,0,1,.92-.253q.736,0,1.265,1.035a2.538,2.538,0,0,1,.3,1.058Q44.252.3,39.353.3a7.392,7.392,0,0,1-3.024-.586A5.137,5.137,0,0,1,34.27-1.84,6.613,6.613,0,0,1,32.821-6,6.014,6.014,0,0,1,34.7-10.637a6.623,6.623,0,0,1,4.681-1.736,5.227,5.227,0,0,1,4.692,2.254A4.694,4.694,0,0,1,44.85-7.5ZM40-6.831q.874,0,.874-.736a1.036,1.036,0,0,0-.4-.851,1.8,1.8,0,0,0-1.15-.322,2.325,2.325,0,0,0-1.483.609,1.711,1.711,0,0,0-.736,1.3ZM52.164,3.289V-10.143a6.375,6.375,0,0,1,.035-.782,1.888,1.888,0,0,1,.2-.575q.322-.621,1.541-.621a3.014,3.014,0,0,1,1.645.311,1.242,1.242,0,0,1,.494.908,3.176,3.176,0,0,1,2.749-1.2,4.9,4.9,0,0,1,3.554,1.771A5.8,5.8,0,0,1,64.055-6.21a5.82,5.82,0,0,1-1.668,4.117A4.871,4.871,0,0,1,58.834-.322,3.307,3.307,0,0,1,56.1-1.38V3.266a6.375,6.375,0,0,1-.035.782,1.867,1.867,0,0,1-.207.587.969.969,0,0,1-.586.471,3.685,3.685,0,0,1-1.127.138A3.8,3.8,0,0,1,53,5.106a.983.983,0,0,1-.6-.46,1.753,1.753,0,0,1-.207-.575A6.375,6.375,0,0,1,52.164,3.289ZM56.718-7.544a2.049,2.049,0,0,0-.529,1.357,1.983,1.983,0,0,0,.541,1.345,1.762,1.762,0,0,0,1.38.61,1.922,1.922,0,0,0,1.426-.6,1.888,1.888,0,0,0,.587-1.357,1.987,1.987,0,0,0-.552-1.369,1.849,1.849,0,0,0-1.437-.609A1.764,1.764,0,0,0,56.718-7.544ZM77.234-7.5a2.777,2.777,0,0,1-.7,2.082,2.188,2.188,0,0,1-1.552.678H69.529a1.261,1.261,0,0,0,.759,1.081,3.019,3.019,0,0,0,1.518.437A6.331,6.331,0,0,0,73.9-3.5l.253-.092a2.319,2.319,0,0,1,.92-.253q.736,0,1.265,1.035a2.538,2.538,0,0,1,.3,1.058Q76.636.3,71.737.3a7.392,7.392,0,0,1-3.025-.586A5.137,5.137,0,0,1,66.654-1.84,6.613,6.613,0,0,1,65.2-6a6.014,6.014,0,0,1,1.875-4.634,6.623,6.623,0,0,1,4.68-1.736,5.227,5.227,0,0,1,4.692,2.254A4.694,4.694,0,0,1,77.234-7.5Zm-4.853.667q.874,0,.874-.736a1.036,1.036,0,0,0-.4-.851A1.8,1.8,0,0,0,71.7-8.74a2.325,2.325,0,0,0-1.484.609,1.711,1.711,0,0,0-.736,1.3Zm6.348-8.97a6.681,6.681,0,0,1,.035-.793,2.132,2.132,0,0,1,.2-.61q.322-.621,1.794-.621,1.4,0,1.748.621a1.836,1.836,0,0,1,.218.621,7,7,0,0,1,.035.805V-5.129a2.406,2.406,0,0,0,.138,1.047q.138.219.609.219a3.682,3.682,0,0,1,.632.034,1.151,1.151,0,0,1,.391.2q.46.3.46,1.633,0,1.449-.46,1.771a4.985,4.985,0,0,1-2.852.138,2.872,2.872,0,0,1-2.3-1.173,7.549,7.549,0,0,1-.644-3.588Zm7.521,5.7a6.681,6.681,0,0,1,.035-.793,2.132,2.132,0,0,1,.2-.609q.322-.6,1.794-.6a2.432,2.432,0,0,1,1.564.391,1.268,1.268,0,0,1,.414.989q.023.23.023.667V-2a6.681,6.681,0,0,1-.035.793,1.843,1.843,0,0,1-.218.609q-.3.6-1.771.6Q86.8,0,86.48-.621a2.149,2.149,0,0,1-.2-.6,6.639,6.639,0,0,1-.035-.8Zm3.772-4.255a.941.941,0,0,1-.6.46,3.97,3.97,0,0,1-1.161.138,3.97,3.97,0,0,1-1.161-.138.965.965,0,0,1-.61-.483,1.973,1.973,0,0,1-.207-.609,6.681,6.681,0,0,1-.035-.793,6.681,6.681,0,0,1,.035-.793,1.879,1.879,0,0,1,.2-.587q.322-.621,1.794-.621,1.449,0,1.748.621a1.843,1.843,0,0,1,.218.609,6.681,6.681,0,0,1,.035.793,6.681,6.681,0,0,1-.035.793A1.843,1.843,0,0,1,90.022-14.352Z" transform="translate(310 40)"/>
  </g>
</svg>
